Hermann’s Tortoise Analysis
…
# Keep only the variables required for analysis
body <- body %>%
  select(individual,
         locality,
         sex,
         year,
         body_condition_index)

# Check for duplicate records
body %>%
  count(individual, locality, sex, year) %>%
  filter(n > 1) 

## # A tibble: 1,171 × 5
##    individual locality sex    year     n
##    <chr>      <chr>    <chr> <dbl> <int>
##  1 1          Plateau  m      2011     2
##  2 1          Plateau  m      2020     2
##  3 10         Beach    f      2009     2
##  4 1001       Plateau  m      2009     2
##  5 1005       Plateau  m      2011     3
##  6 1011       Plateau  m      2009     2
##  7 1011       Plateau  m      2011     2
##  8 1014       Plateau  m      2016     2
##  9 1018       Plateau  m      2016     2
## 10 102        Plateau  m      2008     2
## # ℹ 1,161 more rows
…
